 <div style='left:150px;bottom:100px'></div>
<div style='left:200px;bottom:150px'></div>
<div style='left:250px;bottom:200px'></div>
<div style='left:300px;bottom:250px'></div>
<div style='left:350px;bottom:300px'></div>
<div style='left:400px;bottom:350px'></div>