 <div style='left:300px;bottom:100px'></div>
<div style='left:400px;bottom:150px'></div>
<div style='left:500px;bottom:200px'></div>
<div style='left:600px;bottom:250px'></div>
<div style='left:700px;bottom:300px'></div>
<div style='left:800px;bottom:350px'></div>
<div style='left:970px;bottom:400px'></div>